<?xml version="1.0" encoding="UTF-8" standalone="no"?>
<svg
   xmlns:dc="http://purl.org/dc/elements/1.1/"
   xmlns:cc="http://creativecommons.org/ns#"
   xmlns:rdf="http://www.w3.org/1999/02/22-rdf-syntax-ns#"
   xmlns:svg="http://www.w3.org/2000/svg"
   xmlns="http://www.w3.org/2000/svg"
   xmlns:sodipodi="http://sodipodi.sourceforge.net/DTD/sodipodi-0.dtd"
   xmlns:inkscape="http://www.inkscape.org/namespaces/inkscape"
   id="svg1"
   width="24.019914"
   height="24.000294"
   version="1.1"
   sodipodi:docname="align-sel-as-group.svg"
   inkscape:version="0.92.4 (unknown)">
  <metadata
     id="metadata41">
    <rdf:RDF>
      <cc:Work
         rdf:about="">
        <dc:format>image/svg+xml</dc:format>
        <dc:type
           rdf:resource="http://purl.org/dc/dcmitype/StillImage" />
      </cc:Work>
    </rdf:RDF>
  </metadata>
  <sodipodi:namedview
     id="base"
     showgrid="true"
     inkscape:zoom="26.874671"
     inkscape:cx="12.121433"
     inkscape:cy="12.000147"
     inkscape:current-layer="svg1">
    <inkscape:grid
       id="GridFromPre046Settings"
       type="xygrid"
       originx="0pt"
       originy="0pt"
       spacingx="1pt"
       spacingy="1pt"
       color="#3f3fff"
       empcolor="#3f3fff"
       opacity="0.15"
       empopacity="0.38"
       empspacing="5" />
  </sodipodi:namedview>
  <defs
     id="defs3">
    <linearGradient
       id="linearGradient5704">
      <stop
         id="stop5706"
         offset="0"
         style="stop-color:#5a5a5a;stop-opacity:1" />
      <stop
         id="stop5708"
         offset="1"
         style="stop-color:#000000;stop-opacity:1" />
    </linearGradient>
    <linearGradient
       id="linearGradient5740">
      <stop
         id="stop5742"
         offset="0"
         style="stop-color:#ffffff;stop-opacity:1" />
      <stop
         id="stop5744"
         offset="1"
         style="stop-color:#98b6d3;stop-opacity:1" />
    </linearGradient>
    <linearGradient
       id="linearGradient6684">
      <stop
         id="stop6686"
         offset="0"
         style="stop-color:#ffbf00;stop-opacity:1" />
      <stop
         id="stop6688"
         offset="1"
         style="stop-color:#ffffff;stop-opacity:1" />
    </linearGradient>
  </defs>
  <rect
     y="0.0016714404"
     x="1.4978042"
     width="16"
     style="color:#000000;fill:none"
     id="rect5073"
     height="15.9681" />
  <path
     inkscape:connector-curvature="0"
     id="rect22036"
     d="M 0.66664548,0.66696058 H 23.999978 V 24.000293 H 0.66664548 Z"
     style="opacity:0;fill:none;stroke-width:0.66666698" />
  <path
     inkscape:connector-curvature="0"
     id="rect22040"
     d="M 20.361111,2.6669605 H 21.333333 V 21.333627 H 20.361111 Z"
     style="opacity:1;stroke-width:0.66666698" />
  <path
     inkscape:connector-curvature="0"
     id="rect22042"
     d="M 9.3333327,4.0002937 H 18.666667 V 8.8614045 H 9.3333327 Z"
     style="opacity:1;stroke-width:0.66666698" />
  <path
     inkscape:connector-curvature="0"
     id="rect22044"
     d="M 7.472201,11.750283 H 16 V 14.66696 H 7.472201 Z"
     style="opacity:1;stroke-width:0.66666698" />
  <path
     inkscape:connector-curvature="0"
     id="rect22046"
     d="M 5.3333333,17.444738 H 15.083355 V 21.333627 H 5.3333333 Z"
     style="opacity:1;stroke-width:0.66666698" />
  <path
     style="opacity:1;stroke-width:0.66666698"
     d="M 2.6666667,2.6669605 H 3.6388887 V 21.333627 H 2.6666667 Z"
     id="path64"
     inkscape:connector-curvature="0" />
</svg>
